{
  "self":"https://your-domain.atlassian.net/rest/api/3/group/member?groupname=jira-administrators&includeInactiveUsers=false&startAt=2&maxResults=2",
  "nextPage":"https://your-domain.atlassian.net/rest/api/3/group/member?groupname=jira-administrators&includeInactiveUsers=false&startAt=4&maxResults=2",
  "maxResults":2,
  "startAt":3,
  "total":5,
  "isLast":false,
  "values":[
    {
      "key":"",
      "accountId":"{\"scope\":\"jira\",\"hash\":\"RPlqeJGcBUkcZ4CTlNtsSmPGuTKnKoSWLX_6jK4Jnxc\"}",
      "emailAddress":"{\"scope\":\"email\",\"domain\":\"example.com\",\"hash\":\"6_qk2.iOZ9SBVujXaXC5JclIEzzAYgBnKPqEYJw0Xjs\"}",
      "active":true,
      "timeZone":"Australia/Sydney",
      "accountType":"atlassian"
    },
    {
      "key":"",
      "accountId":"{\"scope\":\"jira\",\"hash\":\"C7FKEMlkQsK3k2CGDg27Yg1eugXV8Z6eb0hyqbmrkB0\"}",
      "emailAddress":"{\"scope\":\"email\",\"domain\":\"example.com\",\"hash\":\"__AhMXvz.2aREYTXcvEJ56bwu791OGnFYGz8lXbrYmw\"}",
      "active":false,
      "timeZone":"Australia/Sydney",
      "accountType":"atlassian"
    }
  ]
}